<?xml version="1.0" encoding="utf-8"?>
<!-- Generator: Adobe Illustrator 21.1.0, SVG Export Plug-In . SVG Version: 6.00 Build 0)  -->
<svg version="1.1" id="Слой_2" xmlns="http://www.w3.org/2000/svg" xmlns:xlink="http://www.w3.org/1999/xlink" x="0px" y="0px"
	 viewBox="0 0 36 36" style="enable-background:new 0 0 36 36;" xml:space="preserve">
<style type="text/css">
	.st0{fill:#47B173;}
</style>
<g>
	<path class="st0" d="M35,15.9h-0.7V9.3c0-2.1-1.7-3.8-3.8-3.8h-3.1l-3.1-4.6C24,0.4,23.5,0.2,23,0.5l-8.5,4.9H4.6
		c-2.1,0-3.8,1.7-3.8,3.8v22.3c0,2.1,1.7,3.8,3.8,3.8h28.7c0.6,0,1-0.4,1-1v-8.5H35c0.6,0,1-0.4,1-1v-8C36,16.3,35.6,15.9,35,15.9z
		 M34,17.9v6h-6.1c-1.7,0-3-1.3-3-3s1.3-3,3-3H34z M23.2,2.7l4,6H12.9L23.2,2.7z M32.3,33.4H4.6c-1,0-1.8-0.8-1.8-1.8V9.3
		c0-1,0.8-1.8,1.8-1.8H11L8.9,8.7H4.6c-0.6,0-1,0.4-1,1s0.4,1,1,1h25.1c0.6,0,1-0.4,1-1s-0.4-1-1-1h-0.2c0-0.1,0-0.1-0.1-0.2
		l-0.7-1.1h1.7c1,0,1.8,0.8,1.8,1.8v6.6h-4.4c-2.8,0-5,2.2-5,5s2.2,5,5,5h4.4V33.4z"/>
	<circle class="st0" cx="28.1" cy="20.9" r="2"/>
</g>
</svg>
