<svg xmlns="http://www.w3.org/2000/svg" width="32" height="33" viewBox="0 0 32 33">
  <path fill="#FFFFFE" fill-rule="evenodd" d="M201.160532,534.46475 L198.282532,531.59475 C197.488532,530.80175 196.199532,530.80175 195.404532,531.59475 L191.087532,537.33475 C190.428532,538.30575 190.293532,539.41175 191.087532,540.20475 L192.849532,541.96175 C191.543532,543.71175 189.975532,545.61975 188.210532,547.37975 C186.214532,549.36975 183.994532,551.17875 181.998532,552.66475 L180.295532,550.96775 C179.501532,550.17475 178.392532,550.30875 177.417532,550.96775 L171.661532,555.27275 C170.696532,555.93775 170.866532,557.34975 171.661532,558.14275 L174.539532,561.01175 C176.129532,562.59775 178.196532,562.08975 180.295532,561.01175 C180.295532,561.01175 186.648532,557.45575 192.087532,552.03175 C197.203532,546.92975 201.160532,540.20475 201.160532,540.20475 C201.985532,537.94175 202.750532,536.04975 201.160532,534.46475" transform="rotate(90 366.044 196.01)"/>
</svg>
