<svg xmlns="http://www.w3.org/2000/svg" width="19" height="19" viewBox="0 0 19 19">
    <path fill="none" fill-rule="nonzero" stroke="#2B9E48" stroke-width="1.8" d="M13.135 18a4.501 4.501 0 0 1-2.527-.812C8.46 15.69 7.07 14.378 5.87 13.192a38.051 38.051 0 0 1-4.044-4.683C.31 6.51.942 3.888 3.216 1.515c.695-.687 1.896-.687 2.654 0L7.26 2.89c.316.312.505.812.505 1.311 0 .5-.19 1-.505 1.311l-.632.625c-.19.187-.126.5 0 .687.695.874 1.895 2.185 2.653 2.81.695.687 1.896 1.873 2.843 2.622a.5.5 0 0 0 .695 0l.632-.624c.695-.687 1.896-.687 2.654 0l1.39 1.374c.315.312.505.811.505 1.31 0 .5-.19 1-.505 1.312C16.168 17.188 14.652 18 13.135 18z"/>
</svg>
