<?xml version="1.0" encoding="iso-8859-1"?>
<!-- Generator: Adobe Illustrator 16.0.0, SVG Export Plug-In . SVG Version: 6.00 Build 0)  -->
<!DOCTYPE svg PUBLIC "-//W3C//DTD SVG 1.1//EN" "http://www.w3.org/Graphics/SVG/1.1/DTD/svg11.dtd">
<svg xmlns="http://www.w3.org/2000/svg" xmlns:xlink="http://www.w3.org/1999/xlink" version="1.1" id="Capa_1" x="0px" y="0px" width="512px" height="512px" viewBox="0 0 43.909 43.91" style="enable-background:new 0 0 43.909 43.91;" xml:space="preserve">
<g>
	<path d="M42.025,21.407H37.32v-2.533c0-8.474-6.893-15.367-15.367-15.367c-8.474,0-15.367,6.894-15.367,15.367v2.533H1.881   C0.842,21.407,0,22.251,0,23.291v15.23c0,1.039,0.842,1.881,1.881,1.881h6.587c1.04,0,1.882-0.842,1.882-1.881v-7.287v-7.943   v-4.416c0-6.398,5.205-11.604,11.604-11.604c6.399,0,11.604,5.205,11.604,11.604v4.416v7.943v7.287   c0,1.039,0.842,1.881,1.881,1.881h6.586c1.041,0,1.884-0.842,1.884-1.881v-15.23C43.908,22.251,43.064,21.407,42.025,21.407z    M6.585,36.638H3.763V25.17h2.822v6.063V36.638z M40.145,36.638h-2.823v-5.404V25.17h2.823V36.638z" fill="#91DC5A"/>
</g>
<g>
</g>
<g>
</g>
<g>
</g>
<g>
</g>
<g>
</g>
<g>
</g>
<g>
</g>
<g>
</g>
<g>
</g>
<g>
</g>
<g>
</g>
<g>
</g>
<g>
</g>
<g>
</g>
<g>
</g>
</svg>
