<svg xmlns="http://www.w3.org/2000/svg" width="375" height="64" viewBox="0 0 375 64">
    <g fill="#FFF" fill-rule="evenodd">
        <path d="M117 30a1 1 0 1 1 0-2 1 1 0 0 1 0 2zm-15-11a1 1 0 1 1 0-2 1 1 0 0 1 0 2zm31-6a1 1 0 1 1 0-2 1 1 0 0 1 0 2zM87 38a1 1 0 1 1 0-2 1 1 0 0 1 0 2zm-68-4a1 1 0 1 1 0-2 1 1 0 0 1 0 2zm228-19a1 1 0 1 1 0-2 1 1 0 0 1 0 2zm-48 19a1 1 0 1 1 0-2 1 1 0 0 1 0 2zm91 17a1 1 0 1 1 0-2 1 1 0 0 1 0 2zm63-28a1 1 0 1 1 0-2 1 1 0 0 1 0 2zm-67 0a1 1 0 1 1 0-2 1 1 0 0 1 0 2zm14-12a1 1 0 1 1 0-2 1 1 0 0 1 0 2zm-37 36a1 1 0 1 1 0-2 1 1 0 0 1 0 2zM69 19a1 1 0 1 1 0-2 1 1 0 0 1 0 2z"/>
        <path d="M134.678 55.057l1.186-.16A5.997 5.997 0 0 1 141 52c1.002 0 1.947.246 2.777.68A5.497 5.497 0 0 1 148.5 50c1.33 0 2.548.472 3.5 1.256.468-.166.974-.256 1.5-.256 1.447 0 2.735.683 3.558 1.745.356-.024.713-.048 1.071-.07A4.479 4.479 0 0 1 160.5 52c.687 0 1.338.154 1.92.43l.04-.003c1.33-.886 3.1-1.427 5.04-1.427 1.688 0 3.246.409 4.5 1.1 1.05-.02 2.11-.035 3.184-.045.202-.028.408-.045.617-.052A5.998 5.998 0 0 1 181 49c1.969 0 3.716.948 4.81 2.412A5.985 5.985 0 0 1 188 51c1.093 0 2.117.292 3 .803a6.017 6.017 0 0 1 4.388-.641A5.988 5.988 0 0 1 200 49c1.854 0 3.511.84 4.612 2.161.445-.105.91-.161 1.388-.161 2.02 0 3.806.998 4.893 2.527l1.03.07A5.979 5.979 0 0 1 216 52c.758 0 1.483.14 2.151.397a6.001 6.001 0 0 1 9.35 2.206l1.79.108c1.1-1.042 2.8-1.711 4.709-1.711 1.11 0 2.15.226 3.042.62A4.49 4.49 0 0 1 240.5 52c1.561 0 2.937.795 3.744 2.003.085-.002.17-.003.256-.003 2.474 0 4.669.719 6.035 1.828C251.641 54.17 254.343 53 257.5 53c2.253 0 4.274.596 5.649 1.54A7.601 7.601 0 0 1 266 54c2.378 0 4.433 1.038 5.404 2.542l.77.018a6.002 6.002 0 0 1 10.712-2.044c1.374-.93 3.38-1.516 5.614-1.516.21 0 .417.005.622.015a4.002 4.002 0 0 1 7.87 1.243A7.812 7.812 0 0 1 299 54c2.576 0 4.773 1.217 5.623 2.927 7.04.028 14.703.044 23.377.073 16.874.056 26.743-9.528 47-6.09V64H0v-7c0-5.602 50.637 3.067 84.843 3.932A5.997 5.997 0 0 1 90 58c.702 0 1.376.12 2.003.342a4.5 4.5 0 0 1 7.711-2.991C100.804 54.517 102.321 54 104 54c3.314 0 6 2.015 6 4.5 0 .15-.01.299-.029.446l.057-.01A3.427 3.427 0 0 1 110 58.5c0-2.485 2.686-4.5 6-4.5 1.11 0 2.15.226 3.042.62A4.49 4.49 0 0 1 122.5 53c.616 0 1.204.124 1.739.348a6.003 6.003 0 0 1 10.44 1.708z"/>
        <path fill-rule="nonzero" d="M353.826 27.452l-5.405 9.005s3.174.628 6.617.205c3.442-.423 6.21-1.78 6.21-1.78l-7.422-7.43zm-2.6 9.312l-4.907 7.764s.878.442 3.09.638c1.532.137 3.676.159 6.688-.21 7.366-.905 9.143-2.751 9.143-2.751l-5.579-5.337s-6.003 1.108-8.436-.104zm-1.817 8.402l-4.608 6.547s3.233 1.434 12.207.333c8.974-1.102 11.444-3.237 11.444-3.237l-4.915-4.238s-8.376 2.874-14.128.595z"/>
        <path fill-rule="nonzero" d="M338.826 31.452l-5.405 9.005s3.174.628 6.617.205c3.442-.423 6.21-1.78 6.21-1.78l-7.422-7.43zm-2.6 9.312l-4.907 7.764s.878.442 3.09.638c1.532.137 3.676.159 6.688-.21 7.366-.905 9.143-2.751 9.143-2.751l-5.579-5.337s-6.003 1.108-8.436-.104zm-1.817 8.402l-4.608 6.547s3.233 1.434 12.207.333c8.974-1.102 11.444-3.237 11.444-3.237l-4.915-4.238s-8.376 2.874-14.128.595zM318.126 38l-4.95 6.341s2.355.774 5.011.774c2.657 0 4.888-.774 4.888-.774L318.125 38zm-2.846 6.836l-4.455 5.445s.627.417 2.29.773c1.152.248 2.78.464 5.103.464 5.684 0 7.208-1.237 7.208-1.237l-3.743-4.578s-4.667.282-6.403-.867zm-2.166 6.218L309 55.601s2.324 1.392 9.25 1.392c6.925 0 9.001-1.392 9.001-1.392l-3.34-3.68s-6.636 1.403-10.797-.867zM76.126 43l-4.95 6.341s2.355.774 5.011.774c2.657 0 4.888-.774 4.888-.774L76.125 43zm-2.846 6.836l-4.455 5.445s.627.417 2.29.773c1.152.248 2.78.464 5.103.464 5.684 0 7.208-1.237 7.208-1.237l-3.743-4.578s-4.667.282-6.403-.867zm-2.166 6.218L67 60.601s2.324 1.392 9.25 1.392c6.925 0 9.001-1.392 9.001-1.392l-3.34-3.68s-6.636 1.403-10.797-.867zM42.68 40.27l-5.784 5.59s2.225 1.094 4.855 1.464c2.63.37 4.948-.085 4.948-.085L42.68 40.27zm-3.77 6.374l-5.168 4.771s.562.501 2.159 1.085c1.106.405 2.688.846 4.99 1.17 5.628.79 7.31-.223 7.31-.223l-3.07-5.054s-4.661-.37-6.22-1.75zM35.9 52.5l-4.706 3.93s2.107 1.702 8.965 2.666 9.108-.126 9.108-.126l-2.796-4.11s-6.766.466-10.57-2.36zM18.048 42.875l-3.985 3.852s1.532.754 3.345 1.008c1.812.255 3.409-.058 3.409-.058l-2.77-4.802zm-2.598 4.392l-3.561 3.287s.387.345 1.488.747c.762.28 1.852.584 3.438.807 3.878.545 5.036-.154 5.036-.154l-2.115-3.482s-3.211-.255-4.286-1.205zM13.377 51.3l-3.244 2.709s1.453 1.172 6.178 1.836c4.725.664 6.275-.086 6.275-.086l-1.926-2.832s-4.662.321-7.283-1.627z"/>
        <path fill-rule="nonzero" d="M56 38l-6.508 8.339s3.096 1.017 6.59 1.017c3.493 0 6.426-1.017 6.426-1.017L56 38zm-3.742 8.99L46.4 54.15s.824.548 3.01 1.016c1.515.326 3.656.61 6.712.61 7.475 0 9.478-1.627 9.478-1.627l-4.922-6.02s-6.137.371-8.42-1.14zm-2.848 8.176L44 61.146s3.056 1.83 12.163 1.83c9.106 0 11.837-1.83 11.837-1.83l-4.393-4.84s-8.726 1.845-14.197-1.14z"/>
    </g>
</svg>
