<svg xmlns="http://www.w3.org/2000/svg" width="22" height="19" viewBox="0 0 22 19">
  <path fill="#FFF" d="M17.1679691,32 L15.0931924,37.5756838 L16.775112,37.5756838 L18.2606031,33.5833333 L29.7424667,33.5833333 L31.2279578,37.5756838 L32.9037386,37.5756838 L30.8289619,32 L17.1679691,32 Z M13,38.3333333 L13,43.0833333 L13.9882816,43.0833333 L16.3454245,51 L31.6576453,51 L34.0147881,43.0833333 L35,43.0833333 L35,38.3333333 L13,38.3333333 Z M14.5714286,39.9166667 L33.4285714,39.9166667 L33.4285714,41.5 L32.8423547,41.5 L30.4852119,49.4166667 L17.5117191,49.4166667 L15.1545763,41.5 L14.5714286,41.5 L14.5714286,39.9166667 Z M20.0714286,42.2916667 L20.0714286,47.8333333 L21.6428571,47.8333333 L21.6428571,42.2916667 L20.0714286,42.2916667 Z M23.2142857,42.2916667 L23.2142857,47.8333333 L24.7857143,47.8333333 L24.7857143,42.2916667 L23.2142857,42.2916667 Z M26.3571429,42.2916667 L26.3571429,47.8333333 L27.9285714,47.8333333 L27.9285714,42.2916667 L26.3571429,42.2916667 Z" transform="translate(-13 -32)"/>
</svg>
