<?xml version="1.0" encoding="utf-8"?>
<!-- Generator: Adobe Illustrator 22.0.1, SVG Export Plug-In . SVG Version: 6.00 Build 0)  -->
<svg version="1.1" id="Слой_1" xmlns="http://www.w3.org/2000/svg" xmlns:xlink="http://www.w3.org/1999/xlink" x="0px" y="0px"
	 viewBox="0 0 375 229" style="enable-background:new 0 0 375 229;" xml:space="preserve">
<style type="text/css">
	.st0{fill:url(#SVGID_1_);}
</style>
<linearGradient id="SVGID_1_" gradientUnits="userSpaceOnUse" x1="-67.5" y1="370.3956" x2="-67.5" y2="369.3956" gradientTransform="matrix(512 0 0 -233.291 34679 86409.9688)">
	<stop  offset="0" style="stop-color:#2B238C"/>
	<stop  offset="1" style="stop-color:#2B238C"/>
</linearGradient>
<path class="st0" d="M-136,232.5l509.9,0.8c0.7-7.7,1.1-115.5,1.1-123.4c0-12-0.8-23.8-2.4-35.3c-1.4,0.5-4.5,1.5-6.2,1.9
	c-0.1-0.7,0.1-1.9-0.1-2.5c-0.5-1.5-0.9,0.1-1.1-2.1c-0.1-1.6,0-3.5,0-5.2c-3.9-1.6,0.5-1.5-7.4-1.5v-6c-2-0.7-1.8,0.4-2-1.3
	l-1.3-4.7c-1.1-0.8-3.8-1.8-5.7-2.2c-2.7,0.6-4.6,1.7-6.3,2.7c-2,1.2-0.1,3.3-0.8,4.7c-1.1,1.2,0.4-0.3-1.3,0.6l-1.2,1l-8.4,0
	l-0.2,8.9c-5.3,0-3.4,0.4-4.8-1.4c0,0.9,0.2,0.7-0.9,1.3c-2,0.9-1.6,2-1.6,2.8c-2.9,0.5-6.2,0.6-9.2,1.1c-2.7,0.5-0.7,0.3-2.8,0.7
	c0.3,0.3,0.5,0.7,0.6,1.3l0,2l0,2.3c0,0,0,0.6,0,1.8c0,0.2,0,0.8,0,1.8c0,0,0.2,0.4,0.6,1l-3.1-0.2l-0.3-8.2l-9.9,0l-0.2,3.5l-5.3,0
	c0-1.6,0.1-7.2-0.3-7.7l-7.7-0.1c-0.2-10.8,1.9-21.3,3.4-31.9l-10.5,1c-5.3,0-8.9,0-13.9-0.4l-1,1.2l-9.9-1.7
	c0.8,4.7,3.3,14.3,2.5,18.6c-0.4,0.4-2.3,0.9-3.2,1.6c-2.2,1.6-1.8-0.5-1.7,4.4c0,2,0.9,2.4-1.3,2.8c-1.7-1.1-0.4-39.6-0.6-44.3
	l-7.9,0l2.7-6.6c-2.8-1.9-5-1.1-10.2-1.4c-0.1-2.8,0.1-12.4-1.5-14.3l-1.3,14.4c-6.2,0-6.1-0.4-10.4,1.1l2.8,6.9l-8.1,0l0,63.1
	c-1.6,0-0.8,0.1-1.7-0.4c-0.8-0.5-0.6-0.4-0.4-1.1c0.1-0.2,0-0.7-0.1-1.5c0.1-1.1,0.5-0.2,0.2-1.3l0-1.8c-0.2-0.8,0.3-0.8,0-1.8
	c0.1-1.1,0.4-0.1,0.2-1.3c-0.4-1.5,0.2-0.5,0-1.8c0-0.2-0.5,0.1-0.2-1c0.7-2.3,0,0.1-0.6-1.9c-1.6-0.2-2-0.1-3.4-0.3
	c-0.9-0.1,0.5-0.1-1.5-0.3c-0.9-0.1-1.6,0-2.5,0c0.5-6.1,1.6-10.2-0.5-16.4c-2.2-6.4-5.1-8.3-8.4-13.6l-2.5,0.6l-1.9-2.3
	c-2.2,0.6-6.1,2.1-8.1,2.3l-0.7-9.2l-1.2,9.8c-4.9,2.1-9.5,2-11.4,5.4c-0.8,1.5-0.4,1.7-3.3,2.2l0-23.7c-1.9,0.4-3.2,1.1-5,1.5
	c-0.9-3.1,0.2-14-1.1-15.7l-1.1,16.6c-2.4,0.7-18.3,5.8-19,6.7c-0.6,1.5,0.1,22.5,0,26.2l-2.8,0c-0.4,2.7-1.4-0.4-1.9,2.2
	c-0.1,0.4,0.1,1.1,0,1.6c-0.3,1.4-1.3,0.8-1.3,2.6c0,1.7-0.8,1.4-1.1,2.8c-0.3,1.3,0.7,0.9-1,1.3c-1.5-1.4-0.2-33.4-0.5-38.2
	c-0.5-0.1-1.2-2.2-2-6.2c-1.6-0.4-1,0-2.4-0.5l0-6.3l-3.3,0l-0.2-2.2l-5.9,0l-0.5-8c0,0.4-0.7,7-0.9,8l-5,0l0,2.1l-3.3,0.2l0,12.7
	c-2.7,0-1.5-0.1-2,0.5c-0.6,1.4,0,23.7,0,28.7c0,0.9,0.5,2.2-0.1,3.1c-0.5,0.7,0.4,0.3-1,0.6c-1.6-0.4-0.9-1.2-1.1-2.1
	c-0.3-1,0-0.5-1-1c-1.4-0.8-3.9-0.9-5.4-0.3c-2,1.3-1.2,2-1.6,3.2l-4.2,0.2l0.4,1.6c0.1,0.8-0.1,0.3-0.4,1.3
	c-0.3,0.9-0.1,3.1-0.1,4.1l0,6.2c0,1.9,0.9,0.7-0.7,2c-2.1-0.5-1.3-0.1-1.2-3.5c0-1.3,0-2.6,0-3.8l-2.1-0.4c0.2-4.3,0.8-6-7.2-7.9
	c-4.7,1.2-4.1,1.6-6.9,3c-1,0.5,0,3.6-0.3,4.5c-0.2,0.5-0.7,0.5-1.5,0.8c-1.6,0.6-3.1,0.5-5.2,0.4l-0.1-3.5l-6,0l0-9.5l-9.4,0l0,4.2
	c-3.7,0.1-2.7,0-4.6,1.1c-0.6,0.3-1,0.2-1.2,0.6c0,1,0.3,2.1-0.4,2.8c-0.9,0.9-0.5-0.6-0.9,1c-0.1,0.5,0.1,1.1,0,1.5
	c-0.6,2.5-1.1-0.4-1.1,5.7c-0.6-0.7-0.6-0.8-0.6-0.8c-0.1-0.2-0.1-0.7-0.1-1l-7.4,0l-0.1,2.6l-3.9,0c0.8-1.7,0.2-3.5,0.3-5.3
	c0.1-2.4-1.6-7,0.1-10.2c-1.7-0.5-1.6-1.3-3-2c-0.1,0-1.2-0.6-3.3-1.8c-2.7,0.4-2.3-0.1-3.3,0.4c-1.3,0.7,0.3,0.1-0.9,1
	c-3.4,0.3-10.9,0.7-13.7,1.8l-1.6,0.6c0.5,0.7,1.5,19.2,0.3,19.5c-1.6-9.2,1-5.5-4-8.3c0.1-0.1,0.8-15,0.8-15.6
	c-13.1,0-2.9-0.6-10.7-1.2c-2-0.2-3.8-0.3-5.8-0.4l-0.1-6.1l-1.8-0.3c-0.1,0-0.4-2.3-1.1-6.9c-0.2-1-0.7-0.2-1.9-1.3
	c-0.7-0.6-1-0.9-2.5-1.4c-2-0.6-3.7-1.4-5.7-2c-7,1.5-8,3.2-9,3.8c0,0-0.5,0.2-1.5,0.5l0,6.7c-0.6,0.7,0.1,0.2-1.2,0.5
	c-0.9,0.2-0.4-0.2-1.8,0.3l0,16.4l-2.6,0.5c-0.3,2.1,0.6,6.2-0.1,8c-0.3,0.8,0.2,0.5-1,0.8c-1.6-0.4-1.2,0.5-1.1-2.6
	c0.1-2.4-1-7.8,0.7-9.5c-0.9,0.5-1.9-1.5-1.4-3c0.5-1.7,1.4-0.9-1-2.7l-6.2-5.2c-0.1,0-1.5,1.3-4.3,3.9l-13.9,0
	c-0.4,1.9,0.6,4.3-0.8,5.8c-1.5,1.6-0.1,3.4-0.7,5.1c-0.8,1,0.2,0-1.8,0.8l-0.1,12.5l-2.1,0c-1.3-0.8,0.1,0-0.5-0.7
	c-0.6-0.6-0.2-0.3-0.8-0.6c-1.1-0.6-1.3,0.6-1.3-1.7c-2.5-0.1-2.2,0.3-2.9-0.5l0-10.8l-5.5,0c0-2-1.1-1.4-1.1-3.6
	c0-5.5,0.1-3.9-1.4-4.9c-1.5-1,1.5-0.9-6.6-0.9l-0.7,0.8c-1.3,0.8-1.2,0.4-1.5,1.2c-0.1,0.1,0,0.9,0,1l-0.5,1.7
	c-0.8,0.8-0.7,0.2-0.8,1.9c-0.1,1.9-1.2,0.5-1.1,5.9c0,1.1,0.5,1.4-1,1.7c-1.4-0.3-0.5,0.4-1-0.7c-0.1-0.2,0-1.3,0-1.5
	c0.1-2.1,0.3-4.3-0.2-6.4c-0.1-0.4,0-1.1,0.2-2l-13.9,0c0,0.4,0.3,1.2,0.3,1.2l-0.3,21.8l-3.9,0c-0.4-0.8-1.8-3.2-3.1-3.5
	c-2-0.2-1.2,0.2-2.1-0.5c-1.6-1.3,0.7-1-3.4-0.8c2.4-2.4-1.1-6,1.5-7.5l-5-1.4c-0.1-1.2,0.1-2.3,0-3.5c0-0.3,0-0.4-0.2-0.7
	c-0.1-0.3-0.3-0.6-0.5-0.8c-2.4,14.3-3.6,28.7-3.6,43.2C-137,117.5-136.6,225-136,232.5z"/>
</svg>
