<svg xmlns="http://www.w3.org/2000/svg" width="16" height="16" viewBox="0 0 16 16">
  <path fill="#AAAAAA" d="M125,222 C120.582,222 117,225.582 117,230 C117,234.418 120.582,238 125,238 C129.418,238 133,234.418 133,230 C133,225.582 129.418,222 125,222 Z M125.666667,234 L124.333333,234 L124.333333,230 L123,230 L123,228.666667 L125.666667,228.666667 L125.666667,234 Z M125,227.5 C124.54,227.5 124.166667,227.126667 124.166667,226.666667 C124.166667,226.206667 124.54,225.833333 125,225.833333 C125.46,225.833333 125.833333,226.206667 125.833333,226.666667 C125.833333,227.126667 125.46,227.5 125,227.5 Z" transform="translate(-117 -222)" opacity=".7"/>
</svg>
