<svg xmlns="http://www.w3.org/2000/svg" width="25" height="25" viewBox="0 0 25 25">
  <g fill="none" transform="translate(3 4)">
    <path fill="#2B9E48" d="M13.473125,12.095 C14.4141667,11.1860417 5.58583333,11.1852083 6.52625,12.094375 C2.71604167,12.6879167 0,14.2266667 0,16.0195833 L0,17.6666667 C0,19.0479167 1.11875,20.1666667 2.5,20.1666667 L17.5,20.1666667 C18.88125,20.1666667 20,19.0479167 20,17.6666667 L20,16.0260417 C20,14.2333333 17.28375,12.6897917 13.473125,12.095 Z M18.3333333,17.6666667 C18.3333333,18.12625 17.9595833,18.5 17.5,18.5 L2.5,18.5 C2.04041667,18.5 1.66666667,18.12625 1.66666667,17.6666667 L1.66666667,16.0195833 C1.66666667,15.8254167 2.146875,15.1985417 3.57333333,14.6004167 C5.24083333,13.9010417 7.58333333,13.5 10,13.5 C12.4154167,13.5 14.7572917,13.9020833 16.4254167,14.6029167 C17.8527083,15.2029167 18.3333333,15.8310417 18.3333333,16.0260417 L18.3333333,17.6666667 Z"/>
    <path fill="#FF9900" d="M13.473125,11.095 C14.4141667,10.1860417 15,8.91145833 15,7.5 L15,5 C15,2.23854167 12.7614583,0 10,0 C7.23854167,0 5,2.23854167 5,5 L5,7.5 C5,8.91104167 5.58583333,10.1852083 6.52625,11.094375 C2.71604167,11.6879167 17.28375,11.6897917 13.473125,11.095 Z M6.66666667,7.5 L6.66666667,5 C6.66666667,3.15916667 8.15916667,1.66666667 10,1.66666667 C11.8410417,1.66666667 13.3333333,3.15916667 13.3333333,5 L13.3333333,7.5 C13.3333333,9.34083333 11.8410417,10.8333333 10,10.8333333 C8.15916667,10.8333333 6.66666667,9.34083333 6.66666667,7.5 Z"/>
  </g>
</svg>
