{
  "prepare_queue": {
    "installed": [],
    "uninstalled": []
  },
  "config_munge": {
    "files": {}
  },
  "installed_plugins": {
    "com-sarriaroman-photoviewer": {
      "PACKAGE_NAME": "com.els24.urist"
    },
    "cordova-plugin-android-permissions": {
      "PACKAGE_NAME": "com.els24.urist"
    },
    "cordova-plugin-audiotoggle": {
      "PACKAGE_NAME": "com.els24.urist"
    },
    "cordova-plugin-console": {
      "PACKAGE_NAME": "com.els24.urist"
    },
    "cordova-plugin-device": {
      "PACKAGE_NAME": "com.els24.urist"
    },
    "cordova-plugin-dialogs": {
      "PACKAGE_NAME": "com.els24.urist"
    },
    "cordova-plugin-file-opener2": {
      "PACKAGE_NAME": "com.els24.urist"
    },
    "cordova-plugin-google-analytics": {
      "PACKAGE_NAME": "com.els24.urist"
    },
    "cordova-plugin-headercolor": {
      "PACKAGE_NAME": "com.els24.urist"
    },
    "cordova-plugin-inappbrowser": {
      "PACKAGE_NAME": "com.els24.urist"
    },
    "cordova-plugin-keychain-touch-id": {
      "PACKAGE_NAME": "com.els24.urist"
    },
    "cordova-plugin-media": {
      "PACKAGE_NAME": "com.els24.urist"
    },
    "cordova-plugin-media-capture": {
      "PACKAGE_NAME": "com.els24.urist"
    },
    "cordova-plugin-native-keyboard": {
      "LICENSE": "TRIAL",
      "PACKAGE_NAME": "com.els24.urist"
    },
    "cordova-plugin-nativestorage": {
      "PACKAGE_NAME": "com.els24.urist"
    },
    "cordova-plugin-splashscreen": {
      "PACKAGE_NAME": "com.els24.urist"
    },
    "cordova-plugin-statusbar": {
      "PACKAGE_NAME": "com.els24.urist"
    },
    "cordova-plugin-vibration": {
      "PACKAGE_NAME": "com.els24.urist"
    },
    "cordova-plugin-whitelist": {
      "PACKAGE_NAME": "com.els24.urist"
    },
    "cordova-plugin-background-mode": {
      "PACKAGE_NAME": "com.els24.urist"
    }
  },
  "dependent_plugins": {
    "cordova-plugin-compat": {
      "PACKAGE_NAME": "com.els24.urist"
    },
    "cordova-plugin-file": {
      "PACKAGE_NAME": "com.els24.urist"
    }
  }
}