{
  "cordova-plugin-whitelist": {
    "source": {
      "type": "registry",
      "id": "cordova-plugin-whitelist@1"
    },
    "is_top_level": true,
    "variables": {}
  },
  "cordova-plugin-headercolor": {
    "source": {
      "type": "registry",
      "id": "cordova-plugin-headercolor"
    },
    "is_top_level": true,
    "variables": {}
  },
  "cordova-plugin-media-capture": {
    "source": {
      "type": "registry",
      "id": "cordova-plugin-media-capture"
    },
    "is_top_level": true,
    "variables": {}
  },
  "cordova-plugin-file": {
    "source": {
      "type": "registry",
      "id": "cordova-plugin-file@^4.0.0"
    },
    "is_top_level": false,
    "variables": {}
  },
  "cordova-plugin-compat": {
    "source": {
      "type": "registry",
      "id": "cordova-plugin-compat@^1.0.0"
    },
    "is_top_level": false,
    "variables": {}
  },
  "cordova-plugin-console": {
    "source": {
      "type": "registry",
      "id": "cordova-plugin-console"
    },
    "is_top_level": true,
    "variables": {}
  },
  "cordova-plugin-device": {
    "source": {
      "type": "registry",
      "id": "cordova-plugin-device"
    },
    "is_top_level": true,
    "variables": {}
  },
  "cordova-plugin-dialogs": {
    "source": {
      "type": "registry",
      "id": "cordova-plugin-dialogs"
    },
    "is_top_level": true,
    "variables": {}
  },
  "cordova-plugin-inappbrowser": {
    "source": {
      "type": "registry",
      "id": "cordova-plugin-inappbrowser@1.7.1"
    },
    "is_top_level": true,
    "variables": {}
  },
  "cordova-plugin-splashscreen": {
    "source": {
      "type": "registry",
      "id": "cordova-plugin-splashscreen@4.0.3"
    },
    "is_top_level": true,
    "variables": {}
  },
  "cordova-plugin-statusbar": {
    "source": {
      "type": "registry",
      "id": "cordova-plugin-statusbar@2.2.3"
    },
    "is_top_level": true,
    "variables": {}
  },
  "cordova-plugin-vibration": {
    "source": {
      "type": "registry",
      "id": "cordova-plugin-vibration"
    },
    "is_top_level": true,
    "variables": {}
  },
  "cordova-plugin-native-keyboard": {
    "source": {
      "type": "registry",
      "id": "cordova-plugin-native-keyboard"
    },
    "is_top_level": true,
    "variables": {}
  },
  "cordova-plugin-audiotoggle": {
    "source": {
      "type": "registry",
      "id": "cordova-plugin-audiotoggle"
    },
    "is_top_level": true,
    "variables": {}
  },
  "cordova-plugin-android-permissions": {
    "source": {
      "type": "registry",
      "id": "cordova-plugin-android-permissions"
    },
    "is_top_level": true,
    "variables": {}
  },
  "cordova-plugin-nativestorage": {
    "source": {
      "type": "registry",
      "id": "cordova-plugin-nativestorage"
    },
    "is_top_level": true,
    "variables": {}
  },
  "cordova-plugin-file-opener2": {
    "source": {
      "type": "registry",
      "id": "cordova-plugin-file-opener2"
    },
    "is_top_level": true,
    "variables": {}
  },
  "com-sarriaroman-photoviewer": {
    "source": {
      "type": "registry",
      "id": "com-sarriaroman-photoviewer"
    },
    "is_top_level": true,
    "variables": {}
  },
  "cordova-plugin-keychain-touch-id": {
    "source": {
      "type": "registry",
      "id": "cordova-plugin-keychain-touch-id"
    },
    "is_top_level": true,
    "variables": {}
  },
  "cordova-plugin-google-analytics": {
    "source": {
      "type": "registry",
      "id": "cordova-plugin-google-analytics"
    },
    "is_top_level": true,
    "variables": {}
  },
  "cordova-plugin-media": {
    "source": {
      "type": "registry",
      "id": "cordova-plugin-media@3.0.1"
    },
    "is_top_level": true,
    "variables": {}
  },
  "cordova-plugin-background-mode": {
    "source": {
      "type": "registry",
      "id": "cordova-plugin-background-mode"
    },
    "is_top_level": true,
    "variables": {}
  }
}