{
    "prepare_queue": {
        "installed": [],
        "uninstalled": []
    },
    "config_munge": {
        "files": {}
    },
    "installed_plugins": {
        "com-sarriaroman-photoviewer": {
            "PACKAGE_NAME": "com.deepbrain.sberbank"
        },
        "cordova-plugin-audiotoggle": {
            "PACKAGE_NAME": "com.deepbrain.sberbank"
        },
        "cordova-plugin-device": {
            "PACKAGE_NAME": "com.deepbrain.sberbank"
        },
        "cordova-plugin-dialogs": {
            "PACKAGE_NAME": "com.deepbrain.sberbank"
        },
        "cordova-plugin-google-analytics": {
            "PACKAGE_NAME": "com.deepbrain.sberbank"
        },
        "cordova-plugin-inappbrowser": {
            "PACKAGE_NAME": "com.deepbrain.sberbank"
        },
        "cordova-plugin-indexeddb2": {
            "PACKAGE_NAME": "com.deepbrain.sberbank"
        },
        "cordova-plugin-ios-longpress-fix": {
            "PACKAGE_NAME": "com.deepbrain.sberbank"
        },
        "cordova-plugin-iosrtc": {
            "PACKAGE_NAME": "com.deepbrain.sberbank"
        },
        "cordova-plugin-keychain-touch-id": {
            "PACKAGE_NAME": "com.deepbrain.sberbank"
        },
        "cordova-plugin-localization-strings": {
            "PACKAGE_NAME": "com.deepbrain.sberbank"
        },
        "cordova-plugin-native-keyboard": {
            "LICENSE": "7404b124f0bd359f8ef9",
            "PACKAGE_NAME": "com.deepbrain.sberbank"
        },
        "cordova-plugin-splashscreen": {
            "PACKAGE_NAME": "com.deepbrain.sberbank"
        },
        "cordova-plugin-statusbar": {
            "PACKAGE_NAME": "com.deepbrain.sberbank"
        },
        "cordova-plugin-vibration": {
            "PACKAGE_NAME": "com.deepbrain.sberbank"
        },
        "cordova-plugin-whitelist": {
            "PACKAGE_NAME": "com.deepbrain.sberbank"
        },
        "cordova.plugins.diagnostic": {
            "PACKAGE_NAME": "com.deepbrain.sberbank"
        },
        "cordova-plugin-console": {
            "PACKAGE_NAME": "com.deepbrain.sberbank"
        },
        "cordova-plugin-keyboard": {
            "PACKAGE_NAME": "com.deepbrain.sberbank"
        },
        "cordova-plugin-background-mode": {
            "PACKAGE_NAME": "com.deepbrain.sberbank"
        }
    },
    "dependent_plugins": {}
}