<?xml version="1.0" encoding="utf-8"?>
<!-- Generator: Adobe Illustrator 21.1.0, SVG Export Plug-In . SVG Version: 6.00 Build 0)  -->
<svg version="1.1" id="Слой_1" xmlns="http://www.w3.org/2000/svg" xmlns:xlink="http://www.w3.org/1999/xlink" x="0px" y="0px"
	 viewBox="0 0 40 36" style="enable-background:new 0 0 40 36;" xml:space="preserve">
<style type="text/css">
	.st0{fill:#48B274;}
</style>
<g>
	<path class="st0" d="M39.6,14L21,0.6c-0.2-0.2-0.5-0.2-0.7-0.2l0,0l0,0c-0.2,0-0.5,0-0.7,0.2L0.8,14c-0.4,0.3-0.6,0.9-0.2,1.4
		c0.2,0.3,0.5,0.4,0.8,0.4c0.2,0,0.4-0.1,0.6-0.2L20.3,2.4l18.2,13.1c0.2,0.1,0.4,0.2,0.6,0.2c0.3,0,0.6-0.1,0.8-0.4
		C40.1,14.9,40,14.3,39.6,14z"/>
	<path class="st0" d="M34,15.2c-0.6,0-1,0.4-1,1v15.8h-8v-9.5c0-1.6-0.5-2.8-1.5-3.7c-1.1-1-2.4-1.2-3.2-1.3l0,0l0,0l0,0
		c0,0-0.1,0-0.2,0s-0.1,0-0.2,0c0,0,0,0-0.1,0l0,0l0,0c-0.7,0-2,0.2-3.2,1.3c-1,0.9-1.5,2.1-1.5,3.7v9.5h-8V16.2c0-0.6-0.4-1-1-1
		s-1,0.4-1,1v16.7c0,0.6,0.4,1,1,1h9.9c0.6,0,1-0.4,1-1V22.4c0-1.1,0.3-1.8,0.8-2.3c0.7-0.7,1.7-0.7,1.9-0.7l0,0
		c0,0,1.3-0.1,2.1,0.7c0.5,0.5,0.8,1.3,0.8,2.3v10.5c0,0.6,0.4,1,1,1H34c0.6,0,1-0.4,1-1V16.2C35,15.6,34.6,15.2,34,15.2z"/>
</g>
</svg>
