<?xml version="1.0" encoding="utf-8"?>
<!-- Generator: Adobe Illustrator 21.1.0, SVG Export Plug-In . SVG Version: 6.00 Build 0)  -->
<svg version="1.1" id="Слой_2" xmlns="http://www.w3.org/2000/svg" xmlns:xlink="http://www.w3.org/1999/xlink" x="0px" y="0px"
	 viewBox="0 0 40 39" style="enable-background:new 0 0 40 39;" xml:space="preserve">
<style type="text/css">
	.st0{fill:#47B173;}
</style>
<g>
	<path class="st0" d="M23.4,1.4C23.4,1.4,23.4,1.4,23.4,1.4L23.4,1.4C23.4,1.4,23.4,1.4,23.4,1.4c-0.1-0.1-0.2-0.2-0.3-0.2
		c-0.1-0.1-0.3-0.1-0.4-0.1h-21c-0.6,0-1,0.4-1,1v35.3c0,0.6,0.4,1,1,1h27.1c0.6,0,1-0.4,1-1V8.1c0-0.3-0.1-0.5-0.3-0.7L23.4,1.4z
		 M23.7,4.5L26,6.8h-2.3V4.5z M2.7,36.4V3.1h19v4.7c0,0.6,0.4,1,1,1h5v27.6H2.7z"/>
	<path class="st0" d="M24.6,20.6H5.3c-0.6,0-1,0.4-1,1s0.4,1,1,1h19.4c0.6,0,1-0.4,1-1S25.2,20.6,24.6,20.6z"/>
	<path class="st0" d="M24.6,25.4H5.3c-0.6,0-1,0.4-1,1s0.4,1,1,1h19.4c0.6,0,1-0.4,1-1S25.2,25.4,24.6,25.4z"/>
	<path class="st0" d="M16.1,30.3H5.3c-0.6,0-1,0.4-1,1s0.4,1,1,1h10.8c0.6,0,1-0.4,1-1S16.6,30.3,16.1,30.3z"/>
	<path class="st0" d="M5,7.9h4.7v6.2H6.7c-0.6,0-1,0.4-1,1s0.4,1,1,1h8.2c0.6,0,1-0.4,1-1s-0.4-1-1-1h-3.1V7.9h4.7c0.6,0,1-0.4,1-1
		s-0.4-1-1-1h-4.7V5c0-0.6-0.4-1-1-1s-1,0.4-1,1v0.9H5c-0.6,0-1,0.4-1,1S4.5,7.9,5,7.9z"/>
	<path class="st0" d="M7.3,11c0.6,0,1-0.4,1-1s-0.4-1-1-1H4.4c-0.6,0-1,0.4-1,1s0.4,1,1,1H7.3z"/>
	<path class="st0" d="M13.6,10c0,0.6,0.4,1,1,1h2.9c0.6,0,1-0.4,1-1s-0.4-1-1-1h-2.9C14,9,13.6,9.5,13.6,10z"/>
	<path class="st0" d="M37.8,30.6c0.8,0,1.4-0.6,1.4-1.4V7.1c0-1.6-1.3-2.9-2.9-2.9h-1.8c-1.6,0-2.9,1.3-2.9,2.9v22.1
		c0,0.8,0.6,1.4,1.4,1.4h0.5c0,0.2,0,0.4-0.1,0.5c-0.1,0.1-0.2,0.2-0.4,0.3c-0.5,0.4-1.4,1-1.4,2.6c0,1.5,1.3,2.1,2,2.4
		c0.7,0.3,0.8,0.4,0.8,0.6c0,0.6,0.4,1,1,1s1-0.4,1-1c0-0.1,0.1-0.2,0.8-0.6c0.8-0.3,2-0.9,2-2.4c0-1.6-0.9-2.3-1.4-2.6
		c-0.2-0.1-0.3-0.2-0.4-0.3c-0.1-0.1-0.1-0.3-0.1-0.5H37.8z M33.6,7.1c0-0.5,0.4-0.9,0.9-0.9h1.8c0.5,0,0.9,0.4,0.9,0.9v21.6h-3.7
		V7.1z M36.4,34.6c-0.3,0.1-0.7,0.3-1,0.5c-0.3-0.2-0.7-0.4-1-0.5c-0.7-0.3-0.8-0.4-0.8-0.6c0-0.6,0.1-0.7,0.6-1
		c0.3-0.2,0.7-0.5,1-0.9c0.2-0.3,0.3-0.5,0.3-0.8c0.1,0.3,0.1,0.6,0.3,0.8c0.3,0.5,0.7,0.7,1,0.9c0.4,0.3,0.6,0.4,0.6,1
		C37.3,34.2,37.1,34.3,36.4,34.6z"/>
</g>
</svg>
