<?xml version="1.0" encoding="utf-8"?>
<!-- Generator: Adobe Illustrator 21.1.0, SVG Export Plug-In . SVG Version: 6.00 Build 0)  -->
<svg version="1.1" id="Слой_2" xmlns="http://www.w3.org/2000/svg" xmlns:xlink="http://www.w3.org/1999/xlink" x="0px" y="0px"
	 viewBox="0 0 26 46" style="enable-background:new 0 0 26 46;" xml:space="preserve">
<style type="text/css">
	.st0{fill:#47B173;}
</style>
<g>
	<path class="st0" d="M6.7,35.8c0,0.6,0.4,1,1,1s1-0.4,1-1c0-2.5,2-4.5,4.5-4.5c0.6,0,1-0.4,1-1s-0.4-1-1-1
		C9.6,29.4,6.7,32.3,6.7,35.8z"/>
	<path class="st0" d="M25.8,15.8L20.9,1.4C20.8,1,20.4,0.7,20,0.7H5.6c-0.1,0-0.2,0-0.3,0.1c0,0,0,0,0,0c0,0,0,0-0.1,0
		C5.1,0.8,5,0.9,4.9,0.9C4.9,1,4.9,1,4.8,1C4.8,1.1,4.7,1.1,4.7,1.2c0,0,0,0.1-0.1,0.1c0,0,0,0,0,0.1L0,15.8c-0.2,0.5,0.1,1,0.6,1.2
		l11.8,4.8C11,22.2,10,23.5,10,25v1.9c-3.7,1.3-6.3,4.8-6.3,8.9c0,5.2,4.2,9.5,9.5,9.5c5.2,0,9.5-4.2,9.5-9.5c0-4-2.5-7.4-5.9-8.8
		v-2c0-1.6-1.1-2.9-2.6-3.3L25.3,17C25.7,16.8,26,16.3,25.8,15.8z M19,17.5L13.3,2.7h1.4L20.1,17L19,17.5z M13.7,19.7L7,2.7h4.1
		l6,15.6L13.7,19.7z M6.9,17.4l1.9-4.8l0.5,1.3l-1.5,3.9L6.9,17.4z M10.4,16.7l1,2.6l-1.8-0.7L10.4,16.7z M5.7,4.7l2,5.2L5,16.7
		l-2.8-1.1L5.7,4.7z M20.6,35.8c0,4.1-3.4,7.5-7.5,7.5S5.7,40,5.7,35.8s3.4-7.5,7.5-7.5S20.6,31.7,20.6,35.8z M14.7,25v1.3H12V25
		c0-0.7,0.6-1.3,1.3-1.3C14.1,23.7,14.7,24.3,14.7,25z M22,16.2L16.8,2.7h2.5l4.3,12.8L22,16.2z"/>
</g>
</svg>
