<?xml version="1.0" encoding="utf-8"?>
<!-- Generator: Adobe Illustrator 21.1.0, SVG Export Plug-In . SVG Version: 6.00 Build 0)  -->
<svg version="1.1" id="Слой_2" xmlns="http://www.w3.org/2000/svg" xmlns:xlink="http://www.w3.org/1999/xlink" x="0px" y="0px"
	 viewBox="0 0 48 47" style="enable-background:new 0 0 48 47;" xml:space="preserve">
<style type="text/css">
	.st0{fill:#47B173;}
</style>
<g>
	<path class="st0" d="M10.3,14.6c3.9,0,7-3.2,7-7s-3.2-7-7-7s-7,3.2-7,7S6.4,14.6,10.3,14.6z M10.3,2.5c2.8,0,5,2.3,5,5
		c0,2.8-2.3,5-5,5c-2.8,0-5-2.3-5-5C5.3,4.8,7.5,2.5,10.3,2.5z"/>
	<path class="st0" d="M24.8,28.1c0.2-0.1,0.4-0.3,0.5-0.6l1.4-3.9L41.3,19c0.5-0.2,0.8-0.7,0.7-1.3c-0.2-0.5-0.7-0.8-1.3-0.7
		l-14.6,4.6l-9.7-5.1c-0.5-0.2-1-0.4-1.5-0.4H7c-1.4,0-2.6,0.9-2.9,2.3L1.2,30.4c-0.2,0.8,0,1.6,0.5,2.2s1.2,1,2,1h0.7
		c0.3,0,0.5,0.2,0.5,0.4L6,45.3c0.1,0.5,0.5,0.9,1,0.9h6.4c0.5,0,1-0.4,1-0.9l1.7-19.6c0-0.3,0.2-0.4,0.3-0.5c0.1-0.1,0.3-0.1,0.5,0
		l7.1,2.9C24.3,28.2,24.6,28.2,24.8,28.1z M17.6,23.4c-0.8-0.3-1.6-0.2-2.3,0.2c-0.7,0.4-1.2,1.2-1.2,2l-1.6,18.7H7.9l-1-10.4
		c-0.1-1.3-1.2-2.2-2.5-2.2H3.7c-0.2,0-0.4-0.1-0.4-0.2s-0.2-0.3-0.1-0.5L6,19c0.1-0.5,0.5-0.8,1-0.8h2.3V26c0,0.6,0.4,1,1,1
		s1-0.4,1-1v-7.8h3.6c0.2,0,0.4,0,0.5,0.1l9.3,4.9l-0.9,2.5L17.6,23.4z"/>
	<path class="st0" d="M46.2,11.7H20.6c-0.6,0-1,0.4-1,1v3.6c0,0.6,0.4,1,1,1s1-0.4,1-1v-2.6h23.6v18.9H21.6v-2.8c0-0.6-0.4-1-1-1
		s-1,0.4-1,1v3.8c0,0.6,0.4,1,1,1h11.1l-6.6,10.6c-0.3,0.5-0.1,1.1,0.3,1.4c0.2,0.1,0.3,0.1,0.5,0.1c0.3,0,0.7-0.2,0.9-0.5l5.6-9.2
		v8.6c0,0.6,0.4,1,1,1s1-0.4,1-1v-8.6l5.6,9.2c0.2,0.3,0.5,0.5,0.9,0.5c0.2,0,0.4,0,0.5-0.1c0.5-0.3,0.6-0.9,0.3-1.4l-6.6-10.6h10.9
		c0.6,0,1-0.4,1-1V12.7C47.2,12.1,46.7,11.7,46.2,11.7z"/>
</g>
</svg>
