<?xml version="1.0" encoding="utf-8"?>
<!-- Generator: Adobe Illustrator 21.1.0, SVG Export Plug-In . SVG Version: 6.00 Build 0)  -->
<svg version="1.1" id="Слой_2" xmlns="http://www.w3.org/2000/svg" xmlns:xlink="http://www.w3.org/1999/xlink" x="0px" y="0px"
	 viewBox="0 0 53 25" style="enable-background:new 0 0 53 25;" xml:space="preserve">
<style type="text/css">
	.st0{fill:#47B173;}
</style>
<g>
	<path class="st0" d="M12.5,17.5c-0.8,0-1.5,0.7-1.5,1.5s0.7,1.5,1.5,1.5c0.8,0,1.5-0.7,1.5-1.5S13.3,17.5,12.5,17.5z M12.5,19.5
		c-0.3,0-0.5-0.2-0.5-0.5s0.2-0.5,0.5-0.5S13,18.7,13,19S12.8,19.5,12.5,19.5z"/>
	<path class="st0" d="M40.4,17.5c-0.8,0-1.5,0.7-1.5,1.5s0.7,1.5,1.5,1.5s1.5-0.7,1.5-1.5S41.2,17.5,40.4,17.5z M40.4,19.5
		c-0.3,0-0.5-0.2-0.5-0.5s0.2-0.5,0.5-0.5s0.5,0.2,0.5,0.5S40.6,19.5,40.4,19.5z"/>
	<path class="st0" d="M51.8,11.4C51.7,11.4,51.7,11.4,51.8,11.4c-0.9-2.3-3-3.9-5.6-3.9H39c-1.6-2.8-5.7-7.2-10-7.2H18.4
		c-7,0-10.4,6.1-10.9,7.2h-3c-2.1,0-3.8,1.7-3.8,3.8v6c0,2.1,1.7,3.8,3.8,3.8h2.4c0.9,2.2,3,3.8,5.6,3.8s4.7-1.6,5.6-3.8h16.8
		c0.9,2.2,3,3.8,5.6,3.8c2.5,0,4.7-1.6,5.6-3.8h5.2c0.6,0,1-0.4,1-1v-6.6C52.1,12.7,52,12.1,51.8,11.4z M36.7,7.5H22.1V2.3h7
		C31.8,2.3,34.9,5,36.7,7.5z M18.4,2.3h1.6v5.2H9.8C10.9,5.8,13.7,2.3,18.4,2.3z M4.5,9.5h0.8V11H2.8C2.9,10.2,3.6,9.5,4.5,9.5z
		 M12.5,22.9c-2.2,0-4-1.8-4-4s1.8-4,4-4s4,1.8,4,4S14.7,22.9,12.5,22.9z M40.4,22.9c-2.2,0-4-1.8-4-4s1.8-4,4-4c2.2,0,4,1.8,4,4
		S42.5,22.9,40.4,22.9z M50.1,19.1h-3.8c0,0,0-0.1,0-0.1c0-3.3-2.7-6-6-6c-3.3,0-6,2.7-6,6c0,0,0,0.1,0,0.1h-16c0,0,0-0.1,0-0.1
		c0-3.3-2.7-6-6-6s-6,2.7-6,6c0,0,0,0.1,0,0.1h-2c-1,0-1.8-0.8-1.8-1.8V13h3.6c0.6,0,1-0.4,1-1V9.5h38.9c1.1,0,2.2,0.5,2.9,1.3h-3.8
		c-0.6,0-1,0.4-1,1s0.4,1,1,1h4.7c0,0.2,0.1,0.4,0.1,0.7V19.1z"/>
	<path class="st0" d="M26.4,11.9h-4.1c-0.6,0-1,0.4-1,1c0,0.6,0.4,1,1,1h4.1c0.6,0,1-0.4,1-1C27.4,12.3,27,11.9,26.4,11.9z"/>
</g>
</svg>
